time;batchSize;nbCreates;nbThread;maximumPoolSize;batch_size_server;max-threads_server;delay;delayServer;cpu_av;mem_av;disk_av
1589292159.003236;1000;1;50;1;1;1;63.53835875988007;648.5178571428571;0.0;0.0;0.0
1589292350.3805482;1000;1;50;1;1;1;70.46519033908844;709.0803571428571;21.65;5805030.0;12.45
1589292418.565134;1000;1;50;3;201;3;14.27924856185913;451.2767857142857;33.8;5753122.0;9.5
1589292480.8739808;1000;1;50;14;212;14;9.302239365577698;1325.9375;30.2;5748548.0;14.7
1589292550.4112704;1000;1;50;9;1;9;15.284412689208985;1421.9375;20.05;5695854.0;25.15
1589292611.9200175;1000;1;50;12;9;12;9.871036858558655;1171.8839285714287;21.75;5589292.0;9.1
1589292672.0806189;1000;1;50;18;220;18;7.601892118453979;1434.2857142857142;17.25;5704036.0;9.200000000000001
1589292732.346301;1000;1;50;15;210;15;7.810417447090149;1180.3660714285713;17.05;5686628.0;3.750000000000001
1589292792.5502532;1000;1;50;13;147;13;7.838476209640503;1088.5535714285713;15.5;5667442.0;2.6000000000000005
1589292854.0988035;1000;1;50;11;140;11;9.261457104682922;1038.4107142857142;21.4;5713902.0;70.95
1589292987.850355;1000;1;50;1;1;1;73.07109105110169;739.6785714285714;29.55;5577612.0;11.15
1589293055.1981523;1000;1;50;3;201;3;13.768109064102173;434.5267857142857;17.0;5593380.0;12.0
1589293115.3391047;1000;1;50;11;209;11;8.616521921157837;970.6875;19.9;5581940.0;2.5500000000000007
1589293186.452326;1000;1;50;12;1;5;18.562934780120848;951.75;26.2;5602924.0;1.450000000000001
1589293252.8457222;1000;1;50;22;201;3;13.003992805480957;406.99107142857144;20.1;5596612.0;17.1
1589293340.9543405;1000;1;50;26;223;1;34.716637110710145;348.7857142857143;24.5;5586040.0;14.05
1589293408.6591442;1000;1;50;28;253;3;14.935532984733582;461.5982142857143;15.55;5721702.0;5.900000000000001
1589293498.8786154;1000;1;50;29;217;1;35.119161324501036;355.70535714285717;29.95;5738446.0;5.750000000000002
1589293565.1862369;1000;1;50;40;187;3;14.185825505256652;441.01785714285717;14.0;5798044.0;6.55
1589293655.4800544;1000;1;50;41;219;1;35.33216909408569;357.6875;23.1;5740248.0;4.4
1589293721.589155;1000;1;50;44;229;3;13.651088137626648;432.73214285714283;15.25;5705532.0;5.15
1589293810.6134617;1000;1;50;45;171;1;34.02134562015534;344.48214285714283;14.0;5722044.0;5.45
1589293875.9595292;1000;1;50;54;156;3;13.579640316963197;424.44642857142856;17.75;5816634.0;26.6
1589293940.4199145;1000;1;50;53;184;4;11.084617671966553;482.58035714285717;19.05;5842758.0;16.1
1589294005.3729508;1000;1;50;57;169;5;11.957791962623595;632.1875;22.1;5743986.0;20.55
1589294067.8856142;1000;1;50;54;240;6;10.155222849845886;626.8303571428571;18.6;5675912.0;18.05
1589294128.6643882;1000;1;50;53;241;7;9.004594373703004;654.9910714285714;17.55;5747050.0;16.55
1589294203.4205801;1000;1;50;52;1;5;21.26195613861084;1063.232142857143;16.85;5821180.0;31.7
1589294268.611805;1000;1;50;51;13;20;9.83968951702118;1980.544642857143;26.85;5571626.0;14.0
1589294337.1512792;1000;1;50;50;1;17;12.220901398658752;2327.339285714286;21.65;5665566.0;16.0
1589294397.5464153;1000;1;50;89;327;16;7.071148629188538;1124.9285714285713;15.45;5636072.0;1.0000000000000004
1589294480.575454;1000;1;50;91;348;1;28.408535046577455;289.98214285714283;11.95;5702856.0;0.9500000000000004
1589294550.6111019;1000;1;50;100;694;3;13.530399737358094;433.11607142857144;22.95;5516494.0;11.1
1589294633.5649567;1000;1;50;98;693;1;28.851632652282714;294.75;26.65;5243964.0;0.7500000000000003
1589294707.8504;1000;1;50;94;1;3;19.838917412757873;625.25;14.2;5530254.0;0.9500000000000007
1589294789.510865;1000;1;50;100;201;1;28.05518793106079;285.85714285714283;12.4;5638462.0;1.1000000000000008
1589294853.0275898;1000;1;50;98;216;3;10.95799614906311;347.41964285714283;15.1;5642992.0;1.6500000000000008
1589294935.9416916;1000;1;50;100;316;1;28.63985447883606;292.36607142857144;13.5;5581796.0;1.100000000000001
1589294998.6377048;1000;1;50;98;321;3;10.801005697250366;347.7857142857143;12.45;5659340.0;0.9000000000000007
1589295080.0916133;1000;1;50;97;215;1;27.952455954551695;284.6875;9.25;5786974.0;1.0000000000000007
1589295143.5554228;1000;1;50;92;210;3;11.022938523292542;349.32142857142856;13.2;5786116.0;0.7500000000000003
1589295231.1624374;1000;1;50;91;317;1;33.38828134536743;332.82142857142856;13.85;5736656.0;13.95
1589295300.2511466;1000;1;50;84;324;3;13.952142939567565;449.08035714285717;38.2;5666762.0;5.550000000000001
1589295390.9359782;1000;1;50;83;268;1;34.414989228248594;352.0267857142857;27.55;5670584.0;6.15
1589295455.0497103;1000;1;50;77;257;3;11.286699295043945;358.8392857142857;16.2;5615630.0;0.8000000000000004
1589295537.6383634;1000;1;50;79;157;1;28.688691010475157;291.69642857142856;14.45;5609708.0;1.1500000000000008
1589295601.5088005;1000;1;50;82;151;3;10.936550912857056;354.3392857142857;21.4;5496500.0;1.1500000000000008
1589295663.2468314;1000;1;50;80;237;4;9.577642068862914;401.08035714285717;13.15;5605708.0;1.400000000000001
1589295746.817771;1000;1;50;79;231;1;29.140512862205505;296.99107142857144;17.75;5597090.0;1.0000000000000007
1589295811.7415807;1000;1;50;69;72;3;12.34363389492035;386.24107142857144;19.8;5570730.0;1.3000000000000012
1589295895.9051964;1000;1;50;68;77;1;29.427718977928162;299.61607142857144;13.85;5545850.0;0.9000000000000004
1589295959.6486237;1000;1;50;61;220;3;11.354070491790772;362.94642857142856;17.5;5512500.0;1.4
1589296044.68309;1000;1;50;62;320;1;30.414109859466553;308.36607142857144;23.0;5536174.0;1.4500000000000004
1589296108.3357837;1000;1;50;67;325;3;11.257826619148254;355.5;17.8;5540188.0;1.0500000000000007
1589296169.9112005;1000;1;50;66;236;4;9.147202358245849;386.1607142857143;10.55;5641886.0;0.8500000000000003
1589296252.0130439;1000;1;50;70;136;1;28.31936581611633;287.88392857142856;14.95;5643548.0;1.0500000000000005
1589296316.476372;1000;1;50;72;127;3;11.610055012702942;369.0892857142857;14.95;5666586.0;1.1500000000000008
1589296400.9230895;1000;1;50;68;27;1;29.631705541610717;306.49107142857144;21.85;5515076.0;1.0500000000000007
1589296465.9645329;1000;1;50;67;21;3;11.735088210105896;379.29464285714283;17.0;5498488.0;1.0000000000000007
1589296548.685053;1000;1;50;66;132;1;28.883084301948546;297.2142857142857;21.9;5533388.0;1.2000000000000006
1589296612.4198904;1000;1;50;59;139;3;11.42336971759796;363.4017857142857;15.55;5537716.0;1.1000000000000008
1589296695.1894474;1000;1;50;60;239;1;28.420857276916504;288.2232142857143;20.65;5571382.0;0.7000000000000006
1589296759.0000348;1000;1;50;67;246;3;11.389509658813477;360.6875;22.35;5539452.0;1.0000000000000004
1589296840.7285445;1000;1;50;68;156;1;27.947739038467407;284.5892857142857;14.25;5582026.0;1.2000000000000006
1589296903.2651691;1000;1;50;74;149;3;10.815435552597046;341.9107142857143;12.1;5667930.0;1.2000000000000006
1589296985.680932;1000;1;50;75;231;1;28.168224959373475;286.9732142857143;8.7;5652832.0;0.9500000000000007
1589297050.292118;1000;1;50;80;237;3;12.710168409347535;397.67857142857144;14.6;5548986.0;8.15
1589297113.890698;1000;1;50;79;190;4;11.519676694869995;481.625;27.95;5608624.0;5.050000000000001
1589297198.2568982;1000;1;50;84;90;1;29.242046365737917;299.69642857142856;18.35;5735778.0;1.0500000000000003
1589297261.691325;1000;1;50;85;83;3;11.20072217464447;357.4375;14.65;5717636.0;1.3000000000000007
1589297373.3028433;1000;1;50;80;1;1;53.15278841495514;536.9910714285714;18.4;5721380.0;0.7500000000000003
1589297432.7525127;1000;1;50;83;201;9;7.268283100128174;691.6160714285714;17.15;5794154.0;1.1000000000000008
1589297493.7306657;1000;1;50;84;194;7;8.722811751365661;637.2410714285714;15.8;5793064.0;1.5000000000000007
1589297554.857322;1000;1;50;89;125;5;8.581949553489686;458.6875;14.85;5728696.0;1.1000000000000008
1589297643.0246892;1000;1;50;92;102;1;32.08459622859955;332.91964285714283;27.95;5346838.0;1.0000000000000004
1589297710.4192286;1000;1;50;97;34;3;13.495836453437805;426.04464285714283;23.7;5398000.0;1.0000000000000004
1589297830.015574;1000;1;50;95;1;1;62.81653409957886;624.9196428571429;21.2;5572886.0;0.9500000000000007
1589297889.946693;1000;1;50;94;54;10;7.638710350990295;772.1160714285714;23.95;5437856.0;0.9500000000000004
1589297949.8535128;1000;1;50;100;43;11;7.795243444442749;877.4910714285714;14.85;5474288.0;1.2500000000000007
1589298063.3527284;1000;1;50;97;1;1;56.17891594409943;563.5178571428571;15.45;5476254.0;0.9000000000000007
1589298128.0728354;1000;1;50;88;201;3;11.919838089942932;377.63392857142856;13.15;5576264.0;1.1000000000000008
1589298190.0105753;1000;1;50;86;209;11;8.601221280097961;990.875;21.1;5559902.0;4.950000000000001
1589298253.8907106;1000;1;50;100;309;5;10.448270082473755;562.375;31.35;5544762.0;0.9000000000000004
1589298344.5584347;1000;1;50;98;345;1;33.0810351896286;340.16964285714283;28.95;5289906.0;1.5000000000000007
1589298413.7736006;1000;1;50;90;391;3;14.419022397994995;454.35714285714283;26.95;5139006.0;1.5000000000000002
1589298497.9628441;1000;1;50;89;371;1;29.444498510360717;301.91964285714283;26.35;5207094.0;1.3500000000000008
1589298561.7991226;1000;1;50;77;312;3;11.746544833183288;373.8482142857143;15.15;5174114.0;1.0000000000000004
1589298644.928288;1000;1;50;78;212;1;28.860943150520324;294.8125;15.25;5193448.0;0.7500000000000003
1589298709.1469212;1000;1;50;85;205;3;11.994918713569641;380.4375;13.9;5296760.0;1.3500000000000008
1589298792.6655815;1000;1;50;84;105;1;29.070709314346313;295.75892857142856;16.6;5159624.0;1.4500000000000008
1589298856.3988414;1000;1;50;76;97;3;11.884132494926453;377.1607142857143;10.4;5192470.0;1.300000000000001
1589298969.407893;1000;1;50;77;1;1;55.350816802978514;555.2321428571429;13.1;5192348.0;1.7500000000000013
1589299034.0482996;1000;1;50;62;17;3;11.682849779129029;377.44642857142856;16.3;5160330.0;2.2
1589299093.8491235;1000;1;50;61;118;11;6.871134309768677;793.3660714285714;18.1;5193354.0;1.0500000000000007
1589299154.6007817;1000;1;50;60;82;6;8.101097965240479;513.1428571428571;12.4;5227044.0;1.2000000000000006
1589299249.5345995;1000;1;50;36;17;1;40.20588942527771;397.3125;21.8;5078844.0;4.050000000000002
1589299339.3790808;1000;1;50;35;1;3;29.876752123832702;936.3839285714286;40.75;5255142.0;2.250000000000001
1589299431.9096947;1000;1;50;34;226;1;35.99921802520752;366.24107142857144;22.05;5257506.0;1.400000000000001
1589299518.491637;1000;1;50;1;242;3;30.74717460632324;953.1785714285714;29.95;5255946.0;1.1000000000000008
1589299630.1154926;1000;1;50;3;1;1;54.310025911331174;545.9017857142857;17.6;5358762.0;0.7500000000000003
1589299693.7695296;1000;1;50;15;201;3;11.726077117919921;371.64285714285717;14.15;5280342.0;1.0000000000000007
1589299754.371961;1000;1;50;16;209;11;7.635487360954285;880.9642857142857;14.2;5203754.0;0.9500000000000007
1589299829.2742953;1000;1;50;17;1;5;21.1994938993454;1084.4285714285713;20.55;5173170.0;1.300000000000001
1589299921.1007771;1000;1;50;1;9;4;34.978294429779055;1454.0;19.0;5156384.0;1.6000000000000008
1589299996.674096;1000;1;50;3;1;3;20.898776545524598;660.7321428571429;12.05;5222438.0;2.05
1589300080.3971338;1000;1;50;37;201;1;29.145879340171813;297.08035714285717;10.3;5199162.0;0.7000000000000004
1589300144.5425072;1000;1;50;38;217;3;11.722798829078675;370.9017857142857;15.85;5416570.0;0.8000000000000005
1589300228.5412304;1000;1;50;39;181;1;29.194283738136292;298.8392857142857;16.25;5432428.0;1.3500000000000008
1589300294.8335423;1000;1;50;45;163;3;12.147260556221008;390.33035714285717;12.3;5417064.0;1.1500000000000008
1589300356.525173;1000;1;50;44;212;4;9.480624618530273;404.8392857142857;16.9;5403410.0;-3.05
1589300420.2032235;1000;1;50;45;312;3;11.66292384147644;372.2232142857143;14.25;5414352.0;0.9000000000000007
1589300504.0242748;1000;1;50;48;315;1;29.084733891487122;296.95535714285717;11.6;5483904.0;1.3000000000000003
1589300568.0504618;1000;1;50;50;515;3;11.69668559551239;372.8392857142857;15.0;5506584.0;1.0500000000000007
1589300630.5105696;1000;1;50;47;512;4;9.44942976474762;405.64285714285717;16.95;5497696.0;1.250000000000001
1589300713.3161147;1000;1;50;46;608;1;28.964004497528077;295.0;16.15;5487194.0;1.0000000000000004
1589300776.8410726;1000;1;50;36;618;3;11.096215262413025;352.2767857142857;15.35;5414426.0;1.0500000000000007
1589300860.7557325;1000;1;50;37;718;1;29.13039611816406;296.30357142857144;14.4;5407606.0;0.9000000000000006
1589300924.3235621;1000;1;50;42;723;3;11.129208192825317;352.69642857142856;16.55;5411440.0;0.6500000000000004
1589300986.1764886;1000;1;50;41;624;4;9.646051077842712;408.64285714285717;15.05;5410678.0;0.8000000000000004
1589301070.0441132;1000;1;50;46;524;1;29.113518123626708;297.51785714285717;13.65;5413756.0;0.7500000000000003
1589301134.8630183;1000;1;50;48;514;3;11.58383991241455;380.5357142857143;11.35;5474346.0;1.2000000000000006
1589301217.4789727;1000;1;50;49;594;1;28.69266191005707;292.99107142857144;14.0;5494040.0;1.1500000000000008
1589301283.4176393;1000;1;50;57;604;3;11.81392475128174;380.23214285714283;13.6;5483142.0;0.9500000000000004
1589301366.3461177;1000;1;50;56;704;1;28.968675637245177;293.86607142857144;16.6;5473424.0;1.1500000000000008
1589301429.808932;1000;1;50;48;712;3;11.248438000679016;358.0267857142857;14.2;5507806.0;0.8500000000000005
1589301492.800315;1000;1;50;49;641;4;10.017506189346314;433.20535714285717;15.35;5489364.0;0.7000000000000004
1589301575.6819854;1000;1;50;42;541;1;28.848420825004577;294.95535714285717;15.6;5460836.0;1.0500000000000007
1589301639.1722314;1000;1;50;40;529;3;11.279106783866883;360.30357142857144;14.7;5455056.0;1.2500000000000009
1589301723.0385857;1000;1;50;39;577;1;29.330408425331115;298.25892857142856;16.05;5452632.0;0.9000000000000004
1589301789.0900471;1000;1;50;34;588;3;12.041491146087646;393.7767857142857;10.95;5440538.0;0.8500000000000003
1589301853.1206992;1000;1;50;36;504;4;10.29095805168152;442.3392857142857;13.3;5437242.0;1.4500000000000008
1589301915.0312452;1000;1;50;34;508;5;9.283192143440246;499.1607142857143;15.55;5440532.0;0.9500000000000005
1589301975.7239168;1000;1;50;36;388;6;8.374084649085999;524.6607142857143;15.0;5428838.0;0.9500000000000007
1589302038.553044;1000;1;50;37;390;4;9.825273404121399;425.32142857142856;16.6;5429638.0;1.0500000000000007
1589302122.4704075;1000;1;50;46;827;1;29.313257265090943;299.94642857142856;13.6;5425206.0;0.7000000000000004
1589302187.405162;1000;1;50;47;829;3;11.526986322402955;376.9732142857143;14.75;5470152.0;1.1000000000000005
1589302252.5815544;1000;1;50;40;497;4;9.985762791633606;427.5625;14.45;5439834.0;1.500000000000001
1589302336.1359673;1000;1;50;41;397;1;29.27307378768921;296.86607142857144;17.35;5402854.0;1.100000000000001
1589302399.8560033;1000;1;50;53;385;3;11.848123025894164;375.61607142857144;16.65;5377592.0;0.9500000000000005
1589302483.8488488;1000;1;50;52;285;1;29.482867274284363;300.3125;15.35;5383632.0;0.5000000000000003
1589302547.4925406;1000;1;50;45;278;3;11.166116013526917;358.14285714285717;16.1;5360014.0;0.9000000000000006
1589302609.2774365;1000;1;50;46;351;4;9.618926753997803;404.1875;17.65;5386030.0;0.9000000000000004
1589302671.2920818;1000;1;50;42;345;5;9.431259660720825;500.50892857142856;14.35;5366700.0;0.8500000000000003
1589302755.2418063;1000;1;50;44;245;1;29.666642866134644;303.32142857142856;12.25;5351482.0;1.4500000000000004
1589302821.3235898;1000;1;50;52;228;3;11.969605078697205;389.23214285714283;14.95;5340736.0;1.1500000000000008
1589302903.9151945;1000;1;50;51;128;1;28.953728470802307;295.85714285714283;15.35;5350114.0;1.1000000000000008
1589302968.4512916;1000;1;50;43;120;3;11.858449873924256;377.49107142857144;16.5;5347862.0;1.3500000000000008
1589303054.2974408;1000;1;50;44;20;1;30.72776132583618;315.49107142857144;13.4;5342936.0;0.8000000000000004
1589303119.2340016;1000;1;50;49;15;3;12.623518552780151;398.45535714285717;16.15;5396484.0;1.0000000000000004
1589303233.0102038;1000;1;50;48;1;1;56.80043062210083;568.4196428571429;14.05;5351968.0;0.6000000000000003
1589303298.9313776;1000;1;50;63;110;3;11.897982134819031;379.23214285714283;15.45;5364576.0;1.2500000000000007
1589303358.7021043;1000;1;50;64;126;11;7.524306707382202;876.5267857142857;16.65;5321862.0;0.6500000000000004
1589303428.754897;1000;1;50;65;1;6;15.93347200870514;985.6339285714286;15.0;5328508.0;1.0500000000000005
1589303488.6191933;1000;1;50;55;201;8;7.722938237190246;630.6428571428571;16.75;5315234.0;0.9500000000000004