time;batchSize;nbCreates;nbThread;maximumPoolSize;batch_size_server;max-threads_server;delay;cpu_av;mem_av;disk_av;xmx
1583509748.22763;100;5;40;20;50;20;3.191949689388275;17.6;4600706.0;0.8000000000000007;2048
1583509833.0196414;100;5;40;20;50;20;3.3146973490715026;12.0;4549348.0;2.0000000000000018;2048
1583509933.9096384;100;5;40;20;50;20;3.080452024936676;15.8;4216560.0;1.200000000000001;2048
1583510003.6825721;100;5;40;20;50;20;3.216976249217987;27.4;4287964.0;0.6000000000000005;2048
1583510066.3482695;100;5;40;20;50;20;3.8799677789211273;26.0;4276284.0;1.6000000000000014;2048
1583510147.688519;100;5;40;20;50;20;3.930071693658829;26.1;4045248.0;1.4000000000000012;2048
1583510254.0988255;100;5;40;20;50;20;3.2431080639362335;25.6;4089448.0;1.0000000000000009;2048
1583510323.7520893;100;5;40;20;50;20;3.3001561224460603;12.9;4221292.0;0.6000000000000005;2048
1583510442.6561978;100;5;40;20;50;20;3.2114807307720183;16.4;4313298.0;0.40000000000000036;2048
1583510545.3729367;100;5;40;20;50;20;4.186646574735642;20.1;3990242.0;2.600000000000002;2048
1583510616.7420018;100;5;40;20;50;20;3.2536878168582914;18.2;3912848.0;0.40000000000000036;2048
1583510715.8297644;100;5;40;20;50;20;3.171575677394867;13.7;6739680.0;0.6000000000000005;2048
1583510773.6664696;100;5;40;20;50;20;3.153133738040924;13.6;6738900.0;0.8000000000000007;2048
1583510916.5928109;100;5;40;20;50;20;3.1643774211406708;14.6;6762964.0;1.0000000000000009;2048
1583511140.4558153;100;5;40;20;100;20;3.0996583700180054;15.2;6791110.0;1.200000000000001;2048
1583511190.9052002;100;5;40;20;100;20;3.028491109609604;15.7;6791122.0;1.4000000000000012;2048
1583511256.7876282;100;5;40;40;100;40;2.8335374295711517;13.0;6826192.0;1.4000000000000012;2048
1583511319.626366;100;5;40;40;100;40;2.6664434731006623;11.5;6791896.0;1.200000000000001;2048
1583511499.2894094;100;5;40;40;100;40;2.8216190576553344;14.7;6879730.0;1.0000000000000009;512
1583511634.6011255;100;5;40;40;100;40;2.7910771489143373;12.2;6857536.0;0.20000000000000018;256
1583511725.886317;100;5;40;40;100;40;2.8885315895080566;9.6;6834972.0;1.4000000000000012;256
1583511878.5107744;100;5;40;40;100;100;2.934741824865341;16.1;6947952.0;0.8000000000000007;256
1583512066.5983493;100;5;40;40;100;100;3.2099832355976106;12.2;6898358.0;1.0000000000000009;256
1583512199.7128673;100;5;40;40;100;50;2.927974808216095;12.9;6946782.0;0.8000000000000007
1583839589.2545466;100;5;40;40;100;50;3.945816248655319;28.0;2214614.0;11.4
1583839660.055362;100;5;40;40;100;50;3.990206575393677;26.0;2223430.0;0.6000000000000005
1583839730.0816882;100;5;40;40;100;50;3.963879132270813;33.4;2152504.0;1.0000000000000009
1583839837.1883943;100;5;40;40;100;50;3.929738861322403;17.7;2157494.0;7.000000000000002
1583839905.0686095;100;5;40;40;100;50;3.9767148196697235;24.2;2664680.0;1.0000000000000009
1583841077.4439797;100;20;40;40;100;50;19.033150959014893;20.4;4196132.0;3.8000000000000007
1583841224.0820982;100;20;40;40;100;50;18.929139149188995;29.4;4075538.0;2.0000000000000018
1583841341.6018128;100;20;45;40;100;50;22.91885518497891;26.6;4067450.0;1.8000000000000014
1583841427.4527204;100;20;50;40;100;50;26.043483967781068;40.0;4274136.0;2.200000000000002
1583841604.750843;100;20;100;40;100;50;61.380357818603514;41.4;4162892.0;23.800000000000004
1583841783.2665987;100;20;100;40;100;50;62.61794135332107;35.1;3660248.0;8.2
1583841938.1971605;100;20;100;100;100;100;60.428379254341124;28.8;3571352.0;23.2
1583846440.779907;100;20;200;200;100;200;162.24555798172952;10.8;7599108.0;1.200000000000001
1583846686.612389;100;20;200;50;100;50;164.99457250356673;7.3;7559922.0;1.8000000000000014
1583846819.065757;100;20;100;50;100;50;62.781751747131345;7.1;7715016.0;4.000000000000002
1583847130.0874844;100;20;100;100;100;100;63.85765476226807;6.3;7909392.0;2.200000000000002
1583847390.4686627;100;20;100;100;100;100;60.202271027565004;4.5;7552880.0;0.8000000000000007
1583856565.8359919;100;20;100;20;100;20;61.117602133750914;5.6;7260410.0;0.6000000000000005
1583856789.6647065;100;20;100;2;100;20;113.14398163080216;38.7;6981790.0;3.2
1583857031.2251694;100;20;100;5;100;20;66.65676328897476;10.7;7324398.0;0.6000000000000005
1583857160.323688;100;20;100;50;100;20;62.8642760682106;12.8;7364046.0;2.8
1583857366.4649768;100;20;100;50;100;2;102.57246232748031;10.0;7344446.0;1.200000000000001
1583858770.1491783;100;20;100;50;100;200;64.63936618566512;6.1;7566582.0;1.4000000000000012
1583858920.9491343;100;20;100;50;100;500;61.10135362863541;5.9;7576462.0;0.8000000000000007
1583859226.15868;100;20;200;200;100;200;165.37728325128555;4.9;7587094.0;1.200000000000001
1583859520.195783;100;20;200;100;100;80;167.41078873753548;5.6;7722798.0;0.8000000000000007
1583860082.103558;100;20;200;200;100;100;171.11600120902062;7.4;7167328.0;1.6000000000000014
1583860375.9168549;100;20;200;200;100;50;199.84068325519561;18.4;7136100.0;1.6000000000000014
